[
    {"name" : "bigr-temp-dmc","flavor" : "3", "image" : "9c859e6d-ed99-4fde-b8a7-42346b6316bb", "custom_facts" : "datacenter=rackspace"},
    {"name" : "bigr-temp-redirector","flavor" : "6", "image" : "9c859e6d-ed99-4fde-b8a7-42346b6316bb", "custom_facts" : "datacenter=rackspace"},
    {"Name" : "bigr-temp-jmeter","flavor" : "5", "image" : "9c859e6d-ed99-4fde-b8a7-42346b6316bb", "custom_facts" : "datacenter=rackspace"},
    {"name" : "bigr-temp-sonic","flavor" : "performance1-1", "image" : "9c859e6d-ed99-4fde-b8a7-42346b6316bb", "custom_facts" : "datacenter=rackspace"},
    {"name" : "bigr-temp-cbA-1","flavor" : "compute1-15", "image" : "9c859e6d-ed99-4fde-b8a7-42346b6316bb", "custom_facts" : "datacenter=rackspace"},
    {"name" : "bigr-temp-cbA-4","flavor" : "compute1-15", "image" : "9c859e6d-ed99-4fde-b8a7-42346b6316bb", "custom_facts" : "datacenter=rackspace"},
    {"name" : "bigr-temp-cbA-3","flavor" : "compute1-15", "image" : "9c859e6d-ed99-4fde-b8a7-42346b6316bb", "custom_facts" : "datacenter=rackspace"},
    {"name" : "bigr-temp-cbA-2","flavor" : "compute1-15", "image" : "9c859e6d-ed99-4fde-b8a7-42346b6316bb", "custom_facts" : "datacenter=rackspace"}
]