{
    "provider"      :   "rackspace",    
    "username"      :   "bhuwanebay",
    "apikey"        :   "20bac2f8bb674af5811618184c70150e",
    "keyname"       :   "bootstrapper",
    "rootpassword"  :   "M0re0ver",
    "image"         :   "1673126e-4f9d-486e-8bde-190cf7564211"
}